<?xml version="1.0" encoding="UTF-8"?>
<svg width="18px" height="14px" viewBox="0 0 18 14" version="1.1" xmlns="http://www.w3.org/2000/svg" xmlns:xlink="http://www.w3.org/1999/xlink">
    <g id="Page-1" stroke="none" stroke-width="1" fill="none" fill-rule="evenodd" stroke-linecap="round">
        <g id="1240-px-width" transform="translate(-1081.000000, -681.000000)" stroke-width="2" stroke="currentColor">
            <g id="Group-11" transform="translate(1075.000000, 680.000000)">
                <polyline id="Path-2" points="7 8.56709285 11.665707 13.3224568 22.7600002 2"></polyline>
            </g>
        </g>
    </g>
</svg>
